%YAML 1.1
%TAG !u! tag:unity3d.com,2011:
--- !u!1045 &1
EditorBuildSettings:
  m_ObjectHideFlags: 0
  serializedVersion: 2
  m_Scenes:
  - enabled: 1
    path: Assets/Scenes/MainMenu.unity
    guid: ac40b9c9cb7f8544cb8cc79e5cf8e17e
  - enabled: 1
    path: Assets/Scenes/Street.unity
    guid: 99c9720ab356a0642a771bea13969a05
  - enabled: 1
    path: Assets/Scenes/House(Inside).unity
    guid: 85ea61bbb7d89b945b81dd157d1aaffb
  - enabled: 1
    path: Assets/Scenes/MiniGame Menu.unity
    guid: 2a3f3d6b1498c044682422da61bfed45
  - enabled: 1
    path: Assets/Scenes/MiniAhorcado.unity
    guid: bd6c8d28a013c574fbcea2231decec26
  - enabled: 1
    path: Assets/Scenes/MiniMemotest.unity
    guid: 64b030b962d025b4bbabab20f19267ef
  - enabled: 1
    path: Assets/Scenes/MiniPuzzle9.unity
    guid: 177d9d6a0d00c9e42a258453c12819ae
  m_configObjects: {}
